[gd_scene load_steps=2 format=3 uid="uid://bf3d5pdl0dwyo"]

[ext_resource type="Script" path="res://addons/la-state-makina/examples/simple_example/main.gd" id="1_dgjcj"]

[node name="Main" type="Node"]
script = ExtResource("1_dgjcj")
